Simulating the Bundesliga (Part 1)
…
First, we will load the packages which we are going to use here. For the data wrangling part we will use the packages in the tidyverse. The modeling will be done using the rstanarm package.

library(tidyverse)
library(rstanarm)

The data is readily available at football-data.co.uk. They provide a lot of betting odds data and some match statistics. We will ignore most if it, though. For now we will only use data on goals scored by each team. The D1-1920.csv is read in using the read_csv function from the readr package, which is part of the tidyverse. The correct date format is specified here so that it is recognized as a date (and not just some string). Then the relevant columns are selected.

buli1920 <- read_csv(
  "D1-1920.csv",
   col_types = cols(Date = col_date(format = "%d/%m/%Y"))) %>%
  select(Date, HomeTeam:FTR)

buli1920

# A tibble: 224 x 6
   Date       HomeTeam      AwayTeam            FTHG  FTAG FTR  
   <date>     <chr>         <chr>              <dbl> <dbl> <chr>
 1 2019-08-16 Bayern Munich Hertha                 2     2 D    
 2 2019-08-17 Dortmund      Augsburg               5     1 H    
 3 2019-08-17 Freiburg      Mainz                  3     0 H    
 4 2019-08-17 Leverkusen    Paderborn              3     2 H    
 5 2019-08-17 Werder Bremen Fortuna Dusseldorf     1     3 A    
 6 2019-08-17 Wolfsburg     FC Koln                2     1 H    
 7 2019-08-17 M'gladbach    Schalke 04             0     0 D    
 8 2019-08-18 Ein Frankfurt Hoffenheim             1     0 H    
 9 2019-08-18 Union Berlin  RB Leipzig             0     4 A    
10 2019-08-23 FC Koln       Dortmund               1     3 A    
# ... with 214 more rows
…
In the .value column we put the names of the new columns that we want to create. The .name column specifies the column names in the old data set which hold the values for the new created values. We then specify another variable (called side) that indicates whether the team (or goal G) is the home (H) or away (A) side. Notice that we create a goals against (GA) column in the process: We take the the away goals in the old data set (FTAG) and assign them to GA in the new data, while side == "H" indicates that these are the goals against the home side. Similarly for the home goals.

Im not going to pretend that this is super obvious (at least it was not for me), but I think looking at the results makes everything a bit clearer.

buli1920_long_obs <- buli1920_obs %>%
  pivot_longer_spec(spec)

buli1920_long_obs

# A tibble: 448 x 7
   Date       FTR   match_id side  team              G    GA
   <date>     <chr>    <int> <chr> <fct>         <dbl> <dbl>
 1 2019-08-16 D            1 H     Bayern Munich     2     2
 2 2019-08-16 D            1 A     Hertha            2     2
 3 2019-08-17 H            2 H     Dortmund          5     1
 4 2019-08-17 H            2 A     Augsburg          1     5
 5 2019-08-17 H            3 H     Freiburg          3     0
 6 2019-08-17 H            3 A     Mainz             0     3
 7 2019-08-17 H            4 H     Leverkusen        3     2
 8 2019-08-17 H            4 A     Paderborn         2     3
 9 2019-08-17 D            5 H     M'gladbach        0     0
10 2019-08-17 D            5 A     Schalke 04        0     0
# ... with 438 more rows
…
We can apply the function to our three posterior predictive draws and generate three whole seasons with observed and simulated data in long format.

map(1:n_sims, gen_dataset)

[[1]]
# A tibble: 612 x 8
   Date       FTR   match_id side  team              G    GA   sim
   <date>     <chr>    <int> <chr> <fct>         <dbl> <dbl> <int>
 1 2019-08-16 D            1 H     Bayern Munich     2     2     1
 2 2019-08-16 D            1 A     Hertha            2     2     1
 3 2019-08-17 H            2 H     Dortmund          5     1     1
 4 2019-08-17 H            2 A     Augsburg          1     5     1
 5 2019-08-17 H            3 H     Freiburg          3     0     1
 6 2019-08-17 H            3 A     Mainz             0     3     1
 7 2019-08-17 H            4 H     Leverkusen        3     2     1
 8 2019-08-17 H            4 A     Paderborn         2     3     1
 9 2019-08-17 D            5 H     M'gladbach        0     0     1
10 2019-08-17 D            5 A     Schalke 04        0     0     1
# ... with 602 more rows

[[2]]
# A tibble: 612 x 8
   Date       FTR   match_id side  team              G    GA   sim
   <date>     <chr>    <int> <chr> <fct>         <dbl> <dbl> <int>
 1 2019-08-16 D            1 H     Bayern Munich     2     2     2
 2 2019-08-16 D            1 A     Hertha            2     2     2
 3 2019-08-17 H            2 H     Dortmund          5     1     2
 4 2019-08-17 H            2 A     Augsburg          1     5     2
 5 2019-08-17 H            3 H     Freiburg          3     0     2
 6 2019-08-17 H            3 A     Mainz             0     3     2
 7 2019-08-17 H            4 H     Leverkusen        3     2     2
 8 2019-08-17 H            4 A     Paderborn         2     3     2
 9 2019-08-17 D            5 H     M'gladbach        0     0     2
10 2019-08-17 D            5 A     Schalke 04        0     0     2
# ... with 602 more rows

[[3]]
# A tibble: 612 x 8
   Date       FTR   match_id side  team              G    GA   sim
   <date>     <chr>    <int> <chr> <fct>         <dbl> <dbl> <int>
 1 2019-08-16 D            1 H     Bayern Munich     2     2     3
 2 2019-08-16 D            1 A     Hertha            2     2     3
 3 2019-08-17 H            2 H     Dortmund          5     1     3
 4 2019-08-17 H            2 A     Augsburg          1     5     3
 5 2019-08-17 H            3 H     Freiburg          3     0     3
 6 2019-08-17 H            3 A     Mainz             0     3     3
 7 2019-08-17 H            4 H     Leverkusen        3     2     3
 8 2019-08-17 H            4 A     Paderborn         2     3     3
 9 2019-08-17 D            5 H     M'gladbach        0     0     3
10 2019-08-17 D            5 A     Schalke 04        0     0     3
# ... with 602 more rows
…
sim_tables <- map_df(
  1:n_sims, 
  ~ gen_dataset(.) %>%
    # using the gen_table function created above
    gen_table, 
  .id = "sim")

sim_tables

# A tibble: 72,000 x 8
   sim     pos team          played   pts     G    GA    GD
   <chr> <int> <fct>          <int> <dbl> <dbl> <dbl> <dbl>
 1 1         1 Bayern Munich     34    71    97    42    55
 2 1         2 Dortmund          34    70    95    49    46
 3 1         3 M'gladbach        34    65    67    43    24
 4 1         4 RB Leipzig        34    61    75    36    39
 5 1         5 Leverkusen        34    59    57    40    17
 6 1         6 Schalke 04        34    55    59    52     7
 7 1         7 Hoffenheim        34    49    52    56    -4
 8 1         8 Freiburg          34    47    45    50    -5
 9 1         9 FC Koln           34    47    53    59    -6
10 1        10 Wolfsburg         34    45    44    47    -3
# ... with 71,990 more rows
…
