…
sim_tables <- map_df(
  1:n_sims, 
  ~ gen_dataset(.) %>%
    # using the gen_table function created above
    gen_table, 
  .id = "sim")

sim_tables

# A tibble: 72,000 x 8
   sim     pos team          played   pts     G    GA    GD
   <chr> <int> <fct>          <int> <dbl> <dbl> <dbl> <dbl>
 1 1         1 Dortmund          34    76    96    46    50
 2 1         2 Bayern Munich     34    72    98    43    55
 3 1         3 RB Leipzig        34    64    82    41    41
 4 1         4 Leverkusen        34    63    61    43    18
 5 1         5 M'gladbach        34    58    60    44    16
 6 1         6 FC Koln           34    55    56    53     3
 7 1         7 Freiburg          34    48    51    56    -5
 8 1         8 Schalke 04        34    47    45    49    -4
 9 1         9 Union Berlin      34    45    47    51    -4
10 1        10 Hoffenheim        34    45    43    56   -13
# … with 71,990 more rows
…
